…
### DEVICES


```r
#Age group, device & wear location
df_val %>%
    group_by(age_code, device_name, Wear_Location, Measured) %>%
    get_summary_stats(MPE, type = "mean_sd") %>%
    arrange(device_name) 
```

```
## # A tibble: 122 x 8
##    Measured device_name     Wear_Location age_code  variable     n    mean    sd
##    <chr>    <chr>           <chr>         <fct>     <chr>    <dbl>   <dbl> <dbl>
##  1 EE       Apple Watch     Wrist         Adults    MPE         21  -3.11  19.0 
##  2 HR       Apple Watch     Wrist         Adults    MPE         49   0.326  3.68
##  3 SC       Apple Watch     Wrist         Adults    MPE         18  -0.752  3.17
##  4 SC       Apple Watch     Wrist         Older Ad… MPE          1   1.59  NA   
##  5 EE       Apple Watch Se… Wrist         Adults    MPE          1  23.0   NA   
##  6 SC       Fitbit          Wrist         Adults    MPE          1  20.6   NA   
##  7 SC       Fitbit          Waist/Hip     Older Ad… MPE          2   6.5    9.19
##  8 EE       Fitbit Blaze    Wrist         Adults    MPE          2 -22.0   24.7 
##  9 EE       Fitbit Charge   Wrist         Adults    MPE          9   2.10  17.9 
## 10 SC       Fitbit Charge   Wrist         Adults    MPE         12   0.218 14.3 
## # … with 112 more rows
```


```r
#sex group, device & wear location
df_val_sex %>%
    group_by(sex, device_name, Wear_Location, Measured) %>%
    get_summary_stats(MPE, type = "mean_sd") %>%
    arrange(device_name)
```

```
## # A tibble: 103 x 8
##    Measured device_name         Wear_Location sex   variable     n    mean    sd
##    <chr>    <chr>               <chr>         <fct> <chr>    <dbl>   <dbl> <dbl>
##  1 EE       Apple Watch         Wrist         Fema… MPE          4   3.07  18.8 
##  2 HR       Apple Watch         Wrist         Fema… MPE          8  -0.662  2.79
##  3 SC       Apple Watch         Wrist         Fema… MPE          3  -1.61   2.79
##  4 EE       Apple Watch         Wrist         Male  MPE          9   5.20  13.9 
##  5 HR       Apple Watch         Wrist         Male  MPE         35   1.23   3.66
##  6 SC       Apple Watch         Wrist         Male  MPE         12   0.995  1.98
##  7 EE       Apple Watch Series… Wrist         Male  MPE          1  23.0   NA   
##  8 SC       Fitbit              Waist/Hip     Fema… MPE          2   6.5    9.19
##  9 SC       Fitbit              Wrist         Fema… MPE          1  20.6   NA   
## 10 EE       Fitbit Blaze        Wrist         Fema… MPE          2 -22.0   24.7 
## # … with 93 more rows
```


```r
#bmi group, device & wear location
df_val_bmi %>%
    group_by(bmi_cat, device_name, Wear_Location, Measured) %>%
    get_summary_stats(MPE, type = "mean_sd") %>%
    arrange(device_name)
```

```
## # A tibble: 95 x 8
##    Measured device_name     Wear_Location bmi_cat   variable     n    mean    sd
##    <chr>    <chr>           <chr>         <chr>     <chr>    <dbl>   <dbl> <dbl>
##  1 EE       Apple Watch     Wrist         Healthy … MPE         14  -6.40  16.3 
##  2 HR       Apple Watch     Wrist         Healthy … MPE         11  -2.65   2.36
##  3 SC       Apple Watch     Wrist         Healthy … MPE          9   0.748  2.25
##  4 EE       Apple Watch     Wrist         Overweig… MPE          6  11.0   13.5 
##  5 HR       Apple Watch     Wrist         Overweig… MPE         15   3.80   4.30
##  6 SC       Apple Watch     Wrist         Overweig… MPE          8  -0.799  2.69
##  7 EE       Apple Watch Se… Wrist         Healthy … MPE          1  23.0   NA   
##  8 EE       Fitbit Blaze    Wrist         Overweig… MPE          2 -22.0   24.7 
##  9 SC       Fitbit Charge   Wrist         Healthy … MPE          3  -7.13  25.7 
## 10 EE       Fitbit Charge   Wrist         Overweig… MPE          4  -6.50  19.2 
## # … with 85 more rows
```
…
